INDEX VERSION 1.131+C:\Users\Cake\Desktop\OX\oxoop\.metadata\.plugins\org.eclipse.jdt.core
1511548824.index
1012538774.index
3864700975.index
2887795228.index
773707020.index
2842528100.index
3009897697.index
1571342537.index
1328594597.index
2155133451.index
2647012890.index
1317448900.index
1561324599.index
1578748611.index
